[gd_scene load_steps=2 format=3 uid="uid://cvaadfco1cyrn"]

[ext_resource type="Script" path="res://addons/mod_tool/main_screen/content_editor/content_editor.gd" id="1_io6df"]

[node name="ContentEditor" type="Control"]
layout_mode = 3
anchors_preset = 15
anchor_right = 1.0
anchor_bottom = 1.0
grow_horizontal = 2
grow_vertical = 2
size_flags_horizontal = 3
size_flags_vertical = 3
script = ExtResource("1_io6df")
